<?xml version="1.0" encoding="UTF-8"?>
<svg width="232px" height="136px" viewBox="0 0 232 136" version="1.1" xmlns="http://www.w3.org/2000/svg" xmlns:xlink="http://www.w3.org/1999/xlink">
    <!-- Generator: Sketch 47.1 (45422) - http://www.bohemiancoding.com/sketch -->
    <title>Group</title>
    <desc>Created with Sketch.</desc>
    <defs>
        <rect id="path-1" x="0" y="0" width="40" height="14" rx="7"></rect>
        <rect id="path-3" x="0" y="0" width="40" height="14" rx="7"></rect>
        <rect id="path-5" x="0" y="0" width="40" height="14" rx="7"></rect>
        <rect id="path-7" x="0" y="0" width="40" height="14" rx="7"></rect>
        <rect id="path-9" x="0" y="0" width="40" height="14" rx="7"></rect>
        <rect id="path-11" x="0" y="0" width="110" height="110" rx="55"></rect>
    </defs>
    <g id="Page-1" stroke="none" stroke-width="1" fill="none" fill-rule="evenodd">
        <g id="Group">
            <g id="A---Base/Shape/Circled" transform="translate(167.000000, 0.000000)">
                <mask id="mask-2" fill="white">
                    <use xlink:href="#path-1"></use>
                </mask>
                <g id="Base"></g>
                <g id="A---Color/Blue-Light-/-100" mask="url(#mask-2)" fill-rule="evenodd" fill="#E7F9FF">
                    <rect id="Base" x="0" y="0" width="40" height="14"></rect>
                </g>
            </g>
            <g id="A---Base/Shape/Circled" transform="translate(0.000000, 29.000000)">
                <mask id="mask-4" fill="white">
                    <use xlink:href="#path-3"></use>
                </mask>
                <g id="Base"></g>
                <g id="A---Color/Orange-/-100" mask="url(#mask-4)" fill-rule="evenodd" fill="#FFF0DB">
                    <rect id="Base" x="0" y="0" width="40" height="14"></rect>
                </g>
            </g>
            <g id="A---Base/Shape/Circled" transform="translate(20.000000, 103.000000)">
                <mask id="mask-6" fill="white">
                    <use xlink:href="#path-5"></use>
                </mask>
                <g id="Base"></g>
                <g id="A---Color/Green-/-100" mask="url(#mask-6)" fill-rule="evenodd" fill="#DEF9E2">
                    <rect id="Base" x="0" y="0" width="40" height="14"></rect>
                </g>
            </g>
            <g id="A---Base/Shape/Circled" transform="translate(147.000000, 122.000000)">
                <mask id="mask-8" fill="white">
                    <use xlink:href="#path-7"></use>
                </mask>
                <g id="Base"></g>
                <g id="A---Color/Red-/-100" mask="url(#mask-8)" fill-rule="evenodd" fill="#FFEEEE">
                    <rect id="Base" x="0" y="0" width="40" height="14"></rect>
                </g>
            </g>
            <g id="A---Base/Shape/Circled" transform="translate(192.000000, 64.000000)">
                <mask id="mask-10" fill="white">
                    <use xlink:href="#path-9"></use>
                </mask>
                <g id="Base"></g>
                <g id="A---Color/Purple-/-100" mask="url(#mask-10)" fill-rule="evenodd" fill="#F2E7FF">
                    <rect id="Base" x="0" y="0" width="40" height="14"></rect>
                </g>
            </g>
            <g id="A---Base/Shape/Circled" transform="translate(68.000000, 0.000000)">
                <mask id="mask-12" fill="white">
                    <use xlink:href="#path-11"></use>
                </mask>
                <g id="Base"></g>
                <g id="A---Color/Haze-/-200" mask="url(#mask-12)" fill-rule="evenodd" fill="#E6E9EF">
                    <rect id="Base" x="0" y="0" width="110" height="110"></rect>
                </g>
            </g>
        </g>
    </g>
</svg>