<?xml version="1.0" encoding="iso-8859-1"?>
<!-- Generator: Adobe Illustrator 21.0.2, SVG Export Plug-In . SVG Version: 6.00 Build 0)  -->
<svg xmlns="http://www.w3.org/2000/svg" xmlns:xlink="http://www.w3.org/1999/xlink" version="1.1" id="Layer_1" x="0px" y="0px" viewBox="0 0 40 40" style="enable-background:new 0 0 40 40;" xml:space="preserve">
    <style>
        .fill-1 { fill: #a4e1f4 !important;   /* replaced #B6DCFE*/   }
        .fill-2 { fill: #1382A5 !important;   /* replaced #4788C7*/   }
        .fill-3 { fill: #77d2ef !important;   /* replaced #98CCFD*/   }
        .fill-4 { fill: #48c3ea !important;   /* replaced #DFF0FE*/   }
    </style>
    <g>
        <path class="fill-1" style="fill:#B6DCFE;" d="M9,26.5c-0.827,0-1.5-0.673-1.5-1.5V3c0-0.827,0.673-1.5,1.5-1.5h13c0.827,0,1.5,0.673,1.5,1.5v22   c0,0.827-0.673,1.5-1.5,1.5H9z"/>
        <path class="fill-2" style="fill:#DFF0FE;" d="M22,2c0.551,0,1,0.449,1,1v22c0,0.551-0.449,1-1,1H9c-0.551,0-1-0.449-1-1V3c0-0.551,0.449-1,1-1H22    M22,1H9C7.895,1,7,1.895,7,3v22c0,1.105,0.895,2,2,2h13c1.105,0,2-0.895,2-2V3C24,1.895,23.105,1,22,1L22,1z"/>
    </g>
    <g>
        <path class="fill-4" style="fill:#DFF0FE;" d="M19,38.5c-4.136,0-7.5-3.364-7.5-7.5V17c0-1.378,1.122-2.5,2.5-2.5s2.5,1.122,2.5,2.5v9.5H22   c0.827,0,1.5-0.673,1.5-1.5V13.902l4.406,2.752c1.046,0.628,1.852,1.595,2.277,2.729l2.962,6.26   c0.277,0.743,0.398,1.562,0.345,2.394c-0.051,0.797-0.26,1.562-0.621,2.274l-4.176,8.19H19z"/>
        <path class="fill-2" style="fill:#DFF0FE;" d="M24,14.804l3.656,2.284c0.942,0.565,1.673,1.443,2.059,2.471l0.015,0.039l0.018,0.038l2.927,6.182   c0.258,0.703,0.364,1.439,0.316,2.187c-0.047,0.729-0.238,1.429-0.566,2.078L28.387,38H19c-3.86,0-7-3.14-7-7v-2v-3v-9   c0-1.103,0.897-2,2-2s2,0.897,2,2v9v1h1h5c1.103,0,2-0.897,2-2V14.804 M23,13v12c0,0.552-0.448,1-1,1h-5v-9c0-1.65-1.35-3-3-3   s-3,1.35-3,3v9v3v2c0,4.418,3.582,8,8,8h10l4.315-8.464c0.394-0.777,0.619-1.617,0.674-2.468c0.057-0.888-0.073-1.788-0.392-2.639   l-2.946-6.221c-0.467-1.244-1.341-2.294-2.48-2.977L23,13L23,13z"/>
    </g>
    <g>
        <path class="fill-1" style="fill:#B6DCFE;" d="M24.502,18.099v0.544C24.502,18.349,24.505,18.195,24.502,18.099z"/>
        <path class="fill-1" style="fill:#B6DCFE;" d="M24,19v6c0,1.105-0.895,2-2,2h-6c0,1.493,1.507,3,3,3h5c1.493,0,3-1.326,3-3C27,23.152,24,19,24,19z   "/>
        <path class="fill-2" style="fill:#DFF0FE;" d="M23,12v13c0,0.551-0.449,1-1,1h-5v1h5c1.105,0,2-0.895,2-2V12H23z"/>
    </g>
</svg>
