<?xml version="1.0" encoding="iso-8859-1"?>
<!-- Generator: Adobe Illustrator 19.2.0, SVG Export Plug-In . SVG Version: 6.00 Build 0)  -->
<svg xmlns="http://www.w3.org/2000/svg" xmlns:xlink="http://www.w3.org/1999/xlink" version="1.1" id="Layer_1" x="0px" y="0px" viewBox="0 0 40 40" style="enable-background:new 0 0 40 40;" xml:space="preserve">
    <style>
        .fill-1 { fill: #a4e1f4 !important;   /* replaced #B6DCFE*/   }
        .fill-2 { fill: #1382A5 !important;   /* replaced #4788C7*/   }
        .fill-3 { fill: #77d2ef !important;   /* replaced #98CCFD*/   }
        .fill-4 { fill: #48c3ea !important;   /* replaced #DFF0FE*/   }
    </style>
    <g>
        <rect x="22.5" y="27.5" class="fill-1" style="fill:#B6DCFE;" width="4" height="11"/>
        <path class="fill-2" style="fill:#4788C7;" d="M26,28v10h-3V28H26 M27,27h-5v12h5V27L27,27z"/>
    </g>
    <g>
        <path class="fill-4" style="fill:#DFF0FE;" d="M6.5,27.5V14c0-3.584,2.916-6.5,6.5-6.5h19c3.584,0,6.5,2.916,6.5,6.5v13.5H6.5z"/>
        <path class="fill-2" style="fill:#4788C7;" d="M32,8c3.308,0,6,2.692,6,6v13H7V14c0-3.308,2.692-6,6-6H32 M32,7H13c-3.85,0-7,3.15-7,7v14h33V14   C39,10.15,35.85,7,32,7L32,7z"/>
    </g>
    <g>
        <path class="fill-1" style="fill:#DFF0FE;" d="M6.5,27.5V13.853C6.5,10.409,9.477,7.5,13,7.5c3.584,0,6.5,2.916,6.5,6.5v13.5H6.5z"/>
        <g>
            <path class="fill-2" style="fill:#4788C7;" d="M13,8c3.308,0,6,2.692,6,6v13H7V13.853C7,10.68,9.748,8,13,8 M13,7c-3.85,0-7,3.15-7,6.853V28h14    V14C20,10.15,16.85,7,13,7L13,7z"/>
        </g>
    </g>
    <g>
        <rect x="24.5" y="1.5" class="fill-3" style="fill:#98CCFD;" width="5" height="3"/>
        <path class="fill-4" style="fill:#4788C7;" d="M29,2v2h-4V2H29 M30,1h-6v4h6V1L30,1z"/>
    </g>
    <g>
        <polygon class="fill-2" style="fill:#4788C7;" points="25,1 24,1 24,12 25,12 25,1  "/>
    </g>
    <g>
        <circle class="fill-2" style="fill:#4788C7;" cx="24.5" cy="12.5" r="1"/>
        <path class="fill-2" style="fill:#4788C7;" d="M24.5,12c0.276,0,0.5,0.224,0.5,0.5S24.776,13,24.5,13S24,12.776,24,12.5S24.224,12,24.5,12    M24.5,11c-0.828,0-1.5,0.672-1.5,1.5s0.672,1.5,1.5,1.5s1.5-0.672,1.5-1.5S25.328,11,24.5,11L24.5,11z"/>
    </g>
    <g>
        <path class="fill-3" style="fill:#98CCFD;" d="M16,17h-6c-0.552,0-1-0.448-1-1v0c0-0.552,0.448-1,1-1h6c0.552,0,1,0.448,1,1v0   C17,16.552,16.552,17,16,17z"/>
    </g>
</svg>
