<?xml version="1.0" encoding="UTF-8"?>
<svg width="256px" height="448px" viewBox="0 0 256 448" version="1.1" xmlns="http://www.w3.org/2000/svg" xmlns:xlink="http://www.w3.org/1999/xlink">
    <!-- Generator: Sketch 47.1 (45422) - http://www.bohemiancoding.com/sketch -->
    <title>chevron-right</title>
    <desc>Created with Sketch.</desc>
    <defs></defs>
    <g id="Page-1" stroke="none" stroke-width="1" fill="none" fill-rule="evenodd">
        <g id="chevron-right" transform="translate(-129.000000, -33.000000)">
            <g id="background">
                <rect id="canvas_background" x="0" y="0" width="582" height="402"></rect>
            </g>
            <g id="Layer-1" transform="translate(129.000000, 33.000000)" fill-rule="nonzero" fill="#FFFFFF">
                <path d="M170.3,224 L170.3,224 L170.3,224 L3.1,49.9 C-1.1,45.6 -1,38.5 3.3,34.1 L33.2,3.5 C37.5,-0.9 44.5,-1 48.7,3.3 L252.9,216 C255.1,218.2 256.1,221.2 255.9,224.1 C256,227.1 255,230 252.9,232.2 L48.7,444.8 C44.5,449.1 37.5,449 33.2,444.6 L3.3,414 C-1,409.6 -1.1,402.5 3.1,398.2 L170.3,224 L170.3,224 Z" id="svg_1"></path>
            </g>
        </g>
    </g>
</svg>